{
  "Actor": {
    "types": ["pc", "party"],
    "templates": {
    },
    "pc": {
      "templates": [],

      "drive": "",
      "occupation": "",

      "occupationalBenefits": "",
      "pillarsOfSanity": "",
      "sourcesOfStability": "",
      "notes": "",
      "background": "",

      "shortNotes": [],
      "longNotes": [],
      
      "initiativeAbility": "",
      "buildPoints": 28,
      "hideZeroRated": false,
      "sheetTheme": null,
      "resources": {
        "health": {
          "min": 0,
          "max": 12,
          "value": 0
        },
        "sanity": {
          "min": 0,
          "max": 12,
          "value": 0
        },
        "stability": {
          "min": 0,
          "max": 12,
          "value": 0
        },
        "magic": {
          "min": 0,
          "max": 12,
          "value": 0
        }
      }
    },
    "party": {
      "actorIds": []
    }
  },
  "Item": {
    "types": ["investigativeAbility", "generalAbility", "equipment", "weapon"],
    "templates": {
      "ability": {
        "rating": 1,
        "pool": 1,
        "hasSpecialities": false,
        "specialities": [],
        "min": 0,
        "max": 8,
        "occupational": false,
        "category": "",
        "showTracker": false,
        "boost":  false
      }
    },
    "investigativeAbility": {
      "templates": ["ability"]
    },
    "generalAbility": {
      "templates": ["ability"],
      "canBeInvestigative": false
    },
    "equipment": {
      "notes": ""
    },
    "weapon": {
      "ability": "Scuffling",
      "damage": 0,
      "pointBlankDamage": 0,
      "closeRangeDamage": 0,
      "nearRangeDamage": 0,
      "longRangeDamage": 0,
      "isPointBlank": true,
      "isCloseRange": true,
      "isNearRange": true,
      "isLongRange": false,
      "notes": "",
      "usesAmmo": true,
      "ammoPerShot": 1,
      "ammo": {
        "min": 0,
        "max": 10,
        "value": 10
      }
    }
  }
}
